<?xml version="1.0" encoding="UTF-8" standalone="no"?>
<svg
   width="304.17mm"
   height="557.90mm"
   viewBox="0.0 0.0 304.17 557.90"
   version="1.1"
   id="svg22615"
   sodipodi:docname="useless_2.svg"
   inkscape:version="1.2.2 (732a01da63, 2022-12-09)"
   xmlns:inkscape="http://www.inkscape.org/namespaces/inkscape"
   xmlns:sodipodi="http://sodipodi.sourceforge.net/DTD/sodipodi-0.dtd"
   xmlns="http://www.w3.org/2000/svg"
   xmlns:svg="http://www.w3.org/2000/svg"
   xmlns:rdf="http://www.w3.org/1999/02/22-rdf-syntax-ns#"
   xmlns:cc="http://creativecommons.org/ns#"
   xmlns:dc="http://purl.org/dc/elements/1.1/">
  <defs
     id="defs22619">
    <inkscape:path-effect
       effect="fillet_chamfer"
       id="path-effect57237"
       is_visible="true"
       lpeversion="1"
       nodesatellites_param="F,0,0,1,0,5.3578125,0,1 @ F,0,0,1,0,5.2955217,0,1 @ F,0,0,1,0,0,0,1 @ F,0,0,1,0,0,0,1"
       unit="px"
       method="auto"
       mode="F"
       radius="0"
       chamfer_steps="1"
       flexible="false"
       use_knot_distance="true"
       apply_no_radius="true"
       apply_with_radius="true"
       only_selected="false"
       hide_knots="false" />
  </defs>
  <sodipodi:namedview
     id="namedview22617"
     pagecolor="#ffffff"
     bordercolor="#000000"
     borderopacity="0.25"
     inkscape:showpageshadow="2"
     inkscape:pageopacity="0.0"
     inkscape:pagecheckerboard="0"
     inkscape:deskcolor="#d1d1d1"
     inkscape:document-units="mm"
     showgrid="false"
     inkscape:zoom="0.42306715"
     inkscape:cx="-107.54794"
     inkscape:cy="765.83587"
     inkscape:window-width="1920"
     inkscape:window-height="1055"
     inkscape:window-x="-8"
     inkscape:window-y="-8"
     inkscape:window-maximized="1"
     inkscape:current-layer="svg22615" />
  <!--
UniversalBox - Box with various options for different styles and lids

Created with Boxes.py (https://festi.info/boxes.py)
Creation date: 2023-04-13 14:15:04
Command line (remove spaces between dashes): boxes UniversalBox - -FingerJoint_finger=3.0 - -FingerJoint_space=3.0 - -top_edge=i - -y=170 - -h=80 - -outside=0 - -burn=0.09
Url: http://www.festi.info/boxes.py/UniversalBox?FingerJoint_angle=90.0&FingerJoint_style=rectangular&FingerJoint_surroundingspaces=2.0&FingerJoint_bottom_lip=0.0&FingerJoint_edge_width=1.0&FingerJoint_extra_length=0.0&FingerJoint_finger=3.0&FingerJoint_play=0.0&FingerJoint_space=3.0&FingerJoint_width=1.0&Stackable_angle=60&Stackable_bottom_stabilizers=0.0&Stackable_height=2.0&Stackable_holedistance=1.0&Stackable_width=4.0&Hinge_grip_percentage=0&Hinge_outset=0&Hinge_outset=1&Hinge_pinwidth=0.5&Hinge_style=outset&Hinge_axle=2.0&Hinge_grip_length=0&Hinge_hingestrength=1&CabinetHinge_bore=3.2&CabinetHinge_eyes_per_hinge=5&CabinetHinge_hinges=2&CabinetHinge_style=inside&CabinetHinge_eye=1.5&CabinetHinge_play=0.05&CabinetHinge_spacing=2.0&SlideOnLid_angle=90.0&SlideOnLid_hole_width=0&SlideOnLid_second_pin=0&SlideOnLid_second_pin=1&SlideOnLid_spring=both&SlideOnLid_style=rectangular&SlideOnLid_surroundingspaces=2.0&SlideOnLid_bottom_lip=0.0&SlideOnLid_edge_width=1.0&SlideOnLid_extra_length=0.0&SlideOnLid_finger=3.0&SlideOnLid_play=0.05&SlideOnLid_space=2.0&SlideOnLid_width=1.0&Click_angle=5.0&Click_bottom_radius=0.1&Click_depth=3.0&RoundedTriangleEdge_height=50.0&RoundedTriangleEdge_r_hole=2.0&RoundedTriangleEdge_radius=30.0&RoundedTriangleEdge_outset=1.0&Mounting_d_head=6.5&Mounting_d_shaft=3.0&Mounting_margin=0.125&Mounting_num=2&Mounting_side=back&Mounting_style=straight+edge%2C+within&HandleEdge_height=20.0&HandleEdge_hole_height=75.0&HandleEdge_hole_width=40%3A40&HandleEdge_on_sides=0&HandleEdge_on_sides=1&HandleEdge_radius=10.0&HandleEdge_outset=1.0&Flex_stretch=1.05&Flex_connection=1.0&Flex_distance=0.5&Flex_width=5.0&Lid_handle=none&Lid_style=none&Lid_handle_height=8.0&Lid_height=4.0&Lid_play=0.1&top_edge=i&bottom_edge=h&x=100&y=170&h=80&outside=0&vertical_edges=finger+joints&thickness=3.0&format=svg&tabs=0.0&qr_code=0&debug=0&labels=0&labels=1&reference=100&inner_corners=loop&burn=0.09&language=en&render=2
Url short: http://www.festi.info/boxes.py/UniversalBox?FingerJoint_finger=3.0&FingerJoint_space=3.0&top_edge=i&y=170&h=80&outside=0&burn=0.09
SettingsUrl: http://www.festi.info/boxes.py/UniversalBox?FingerJoint_angle=90.0&FingerJoint_style=rectangular&FingerJoint_surroundingspaces=2.0&FingerJoint_bottom_lip=0.0&FingerJoint_edge_width=1.0&FingerJoint_extra_length=0.0&FingerJoint_finger=3.0&FingerJoint_play=0.0&FingerJoint_space=3.0&FingerJoint_width=1.0&Stackable_angle=60&Stackable_bottom_stabilizers=0.0&Stackable_height=2.0&Stackable_holedistance=1.0&Stackable_width=4.0&Hinge_grip_percentage=0&Hinge_outset=0&Hinge_outset=1&Hinge_pinwidth=0.5&Hinge_style=outset&Hinge_axle=2.0&Hinge_grip_length=0&Hinge_hingestrength=1&CabinetHinge_bore=3.2&CabinetHinge_eyes_per_hinge=5&CabinetHinge_hinges=2&CabinetHinge_style=inside&CabinetHinge_eye=1.5&CabinetHinge_play=0.05&CabinetHinge_spacing=2.0&SlideOnLid_angle=90.0&SlideOnLid_hole_width=0&SlideOnLid_second_pin=0&SlideOnLid_second_pin=1&SlideOnLid_spring=both&SlideOnLid_style=rectangular&SlideOnLid_surroundingspaces=2.0&SlideOnLid_bottom_lip=0.0&SlideOnLid_edge_width=1.0&SlideOnLid_extra_length=0.0&SlideOnLid_finger=3.0&SlideOnLid_play=0.05&SlideOnLid_space=2.0&SlideOnLid_width=1.0&Click_angle=5.0&Click_bottom_radius=0.1&Click_depth=3.0&RoundedTriangleEdge_height=50.0&RoundedTriangleEdge_r_hole=2.0&RoundedTriangleEdge_radius=30.0&RoundedTriangleEdge_outset=1.0&Mounting_d_head=6.5&Mounting_d_shaft=3.0&Mounting_margin=0.125&Mounting_num=2&Mounting_side=back&Mounting_style=straight+edge%2C+within&HandleEdge_height=20.0&HandleEdge_hole_height=75.0&HandleEdge_hole_width=40%3A40&HandleEdge_on_sides=0&HandleEdge_on_sides=1&HandleEdge_radius=10.0&HandleEdge_outset=1.0&Flex_stretch=1.05&Flex_connection=1.0&Flex_distance=0.5&Flex_width=5.0&Lid_handle=none&Lid_style=none&Lid_handle_height=8.0&Lid_height=4.0&Lid_play=0.1&top_edge=i&bottom_edge=h&x=100&y=170&h=80&outside=0&vertical_edges=finger+joints&thickness=3.0&format=svg&tabs=0.0&qr_code=0&debug=0&labels=0&labels=1&reference=100&inner_corners=loop&burn=0.09&language=en&render=2
SettingsUrl short: http://www.festi.info/boxes.py/UniversalBox?FingerJoint_finger=3.0&FingerJoint_space=3.0&top_edge=i&y=170&h=80&outside=0&burn=0.09
-->
  <title
     id="title22520">UniversalBox</title>
  <metadata
     id="metadata22522">
    <rdf:RDF>
      <cc:Work>
        <dc:title>UniversalBox</dc:title>
        <dc:date>2023-04-13 14:15:04</dc:date>
        <dc:source>http://www.festi.info/boxes.py/UniversalBox?FingerJoint_angle=90.0&amp;FingerJoint_style=rectangular&amp;FingerJoint_surroundingspaces=2.0&amp;FingerJoint_bottom_lip=0.0&amp;FingerJoint_edge_width=1.0&amp;FingerJoint_extra_length=0.0&amp;FingerJoint_finger=3.0&amp;FingerJoint_play=0.0&amp;FingerJoint_space=3.0&amp;FingerJoint_width=1.0&amp;Stackable_angle=60&amp;Stackable_bottom_stabilizers=0.0&amp;Stackable_height=2.0&amp;Stackable_holedistance=1.0&amp;Stackable_width=4.0&amp;Hinge_grip_percentage=0&amp;Hinge_outset=0&amp;Hinge_outset=1&amp;Hinge_pinwidth=0.5&amp;Hinge_style=outset&amp;Hinge_axle=2.0&amp;Hinge_grip_length=0&amp;Hinge_hingestrength=1&amp;CabinetHinge_bore=3.2&amp;CabinetHinge_eyes_per_hinge=5&amp;CabinetHinge_hinges=2&amp;CabinetHinge_style=inside&amp;CabinetHinge_eye=1.5&amp;CabinetHinge_play=0.05&amp;CabinetHinge_spacing=2.0&amp;SlideOnLid_angle=90.0&amp;SlideOnLid_hole_width=0&amp;SlideOnLid_second_pin=0&amp;SlideOnLid_second_pin=1&amp;SlideOnLid_spring=both&amp;SlideOnLid_style=rectangular&amp;SlideOnLid_surroundingspaces=2.0&amp;SlideOnLid_bottom_lip=0.0&amp;SlideOnLid_edge_width=1.0&amp;SlideOnLid_extra_length=0.0&amp;SlideOnLid_finger=3.0&amp;SlideOnLid_play=0.05&amp;SlideOnLid_space=2.0&amp;SlideOnLid_width=1.0&amp;Click_angle=5.0&amp;Click_bottom_radius=0.1&amp;Click_depth=3.0&amp;RoundedTriangleEdge_height=50.0&amp;RoundedTriangleEdge_r_hole=2.0&amp;RoundedTriangleEdge_radius=30.0&amp;RoundedTriangleEdge_outset=1.0&amp;Mounting_d_head=6.5&amp;Mounting_d_shaft=3.0&amp;Mounting_margin=0.125&amp;Mounting_num=2&amp;Mounting_side=back&amp;Mounting_style=straight+edge%2C+within&amp;HandleEdge_height=20.0&amp;HandleEdge_hole_height=75.0&amp;HandleEdge_hole_width=40%3A40&amp;HandleEdge_on_sides=0&amp;HandleEdge_on_sides=1&amp;HandleEdge_radius=10.0&amp;HandleEdge_outset=1.0&amp;Flex_stretch=1.05&amp;Flex_connection=1.0&amp;Flex_distance=0.5&amp;Flex_width=5.0&amp;Lid_handle=none&amp;Lid_style=none&amp;Lid_handle_height=8.0&amp;Lid_height=4.0&amp;Lid_play=0.1&amp;top_edge=i&amp;bottom_edge=h&amp;x=100&amp;y=170&amp;h=80&amp;outside=0&amp;vertical_edges=finger+joints&amp;thickness=3.0&amp;format=svg&amp;tabs=0.0&amp;qr_code=0&amp;debug=0&amp;labels=0&amp;labels=1&amp;reference=100&amp;inner_corners=loop&amp;burn=0.09&amp;language=en&amp;render=2</dc:source>
        <dc:source>http://www.festi.info/boxes.py/UniversalBox?FingerJoint_finger=3.0&amp;FingerJoint_space=3.0&amp;top_edge=i&amp;y=170&amp;h=80&amp;outside=0&amp;burn=0.09</dc:source>
        <dc:description>Box with various options for different styles and lids

Created with Boxes.py (https://festi.info/boxes.py)
Command line: boxes UniversalBox --FingerJoint_angle=90.0 --FingerJoint_style=rectangular --FingerJoint_surroundingspaces=2.0 --FingerJoint_bottom_lip=0.0 --FingerJoint_edge_width=1.0 --FingerJoint_extra_length=0.0 --FingerJoint_finger=3.0 --FingerJoint_play=0.0 --FingerJoint_space=3.0 --FingerJoint_width=1.0 --Stackable_angle=60 --Stackable_bottom_stabilizers=0.0 --Stackable_height=2.0 --Stackable_holedistance=1.0 --Stackable_width=4.0 --Hinge_grip_percentage=0 --Hinge_outset=0 --Hinge_outset=1 --Hinge_pinwidth=0.5 --Hinge_style=outset --Hinge_axle=2.0 --Hinge_grip_length=0 --Hinge_hingestrength=1 --CabinetHinge_bore=3.2 --CabinetHinge_eyes_per_hinge=5 --CabinetHinge_hinges=2 --CabinetHinge_style=inside --CabinetHinge_eye=1.5 --CabinetHinge_play=0.05 --CabinetHinge_spacing=2.0 --SlideOnLid_angle=90.0 --SlideOnLid_hole_width=0 --SlideOnLid_second_pin=0 --SlideOnLid_second_pin=1 --SlideOnLid_spring=both --SlideOnLid_style=rectangular --SlideOnLid_surroundingspaces=2.0 --SlideOnLid_bottom_lip=0.0 --SlideOnLid_edge_width=1.0 --SlideOnLid_extra_length=0.0 --SlideOnLid_finger=3.0 --SlideOnLid_play=0.05 --SlideOnLid_space=2.0 --SlideOnLid_width=1.0 --Click_angle=5.0 --Click_bottom_radius=0.1 --Click_depth=3.0 --RoundedTriangleEdge_height=50.0 --RoundedTriangleEdge_r_hole=2.0 --RoundedTriangleEdge_radius=30.0 --RoundedTriangleEdge_outset=1.0 --Mounting_d_head=6.5 --Mounting_d_shaft=3.0 --Mounting_margin=0.125 --Mounting_num=2 --Mounting_side=back '--Mounting_style=straight edge, within' --HandleEdge_height=20.0 --HandleEdge_hole_height=75.0 --HandleEdge_hole_width=40:40 --HandleEdge_on_sides=0 --HandleEdge_on_sides=1 --HandleEdge_radius=10.0 --HandleEdge_outset=1.0 --Flex_stretch=1.05 --Flex_connection=1.0 --Flex_distance=0.5 --Flex_width=5.0 --Lid_handle=none --Lid_style=none --Lid_handle_height=8.0 --Lid_height=4.0 --Lid_play=0.1 --top_edge=i --bottom_edge=h --x=100 --y=170 --h=80 --outside=0 '--vertical_edges=finger joints' --thickness=3.0 --format=svg --tabs=0.0 --qr_code=0 --debug=0 --labels=0 --labels=1 --reference=100 --inner_corners=loop --burn=0.09
Command line short: boxes UniversalBox --FingerJoint_finger=3.0 --FingerJoint_space=3.0 --top_edge=i --y=170 --h=80 --outside=0 --burn=0.09
Url: http://www.festi.info/boxes.py/UniversalBox?FingerJoint_angle=90.0&amp;FingerJoint_style=rectangular&amp;FingerJoint_surroundingspaces=2.0&amp;FingerJoint_bottom_lip=0.0&amp;FingerJoint_edge_width=1.0&amp;FingerJoint_extra_length=0.0&amp;FingerJoint_finger=3.0&amp;FingerJoint_play=0.0&amp;FingerJoint_space=3.0&amp;FingerJoint_width=1.0&amp;Stackable_angle=60&amp;Stackable_bottom_stabilizers=0.0&amp;Stackable_height=2.0&amp;Stackable_holedistance=1.0&amp;Stackable_width=4.0&amp;Hinge_grip_percentage=0&amp;Hinge_outset=0&amp;Hinge_outset=1&amp;Hinge_pinwidth=0.5&amp;Hinge_style=outset&amp;Hinge_axle=2.0&amp;Hinge_grip_length=0&amp;Hinge_hingestrength=1&amp;CabinetHinge_bore=3.2&amp;CabinetHinge_eyes_per_hinge=5&amp;CabinetHinge_hinges=2&amp;CabinetHinge_style=inside&amp;CabinetHinge_eye=1.5&amp;CabinetHinge_play=0.05&amp;CabinetHinge_spacing=2.0&amp;SlideOnLid_angle=90.0&amp;SlideOnLid_hole_width=0&amp;SlideOnLid_second_pin=0&amp;SlideOnLid_second_pin=1&amp;SlideOnLid_spring=both&amp;SlideOnLid_style=rectangular&amp;SlideOnLid_surroundingspaces=2.0&amp;SlideOnLid_bottom_lip=0.0&amp;SlideOnLid_edge_width=1.0&amp;SlideOnLid_extra_length=0.0&amp;SlideOnLid_finger=3.0&amp;SlideOnLid_play=0.05&amp;SlideOnLid_space=2.0&amp;SlideOnLid_width=1.0&amp;Click_angle=5.0&amp;Click_bottom_radius=0.1&amp;Click_depth=3.0&amp;RoundedTriangleEdge_height=50.0&amp;RoundedTriangleEdge_r_hole=2.0&amp;RoundedTriangleEdge_radius=30.0&amp;RoundedTriangleEdge_outset=1.0&amp;Mounting_d_head=6.5&amp;Mounting_d_shaft=3.0&amp;Mounting_margin=0.125&amp;Mounting_num=2&amp;Mounting_side=back&amp;Mounting_style=straight+edge%2C+within&amp;HandleEdge_height=20.0&amp;HandleEdge_hole_height=75.0&amp;HandleEdge_hole_width=40%3A40&amp;HandleEdge_on_sides=0&amp;HandleEdge_on_sides=1&amp;HandleEdge_radius=10.0&amp;HandleEdge_outset=1.0&amp;Flex_stretch=1.05&amp;Flex_connection=1.0&amp;Flex_distance=0.5&amp;Flex_width=5.0&amp;Lid_handle=none&amp;Lid_style=none&amp;Lid_handle_height=8.0&amp;Lid_height=4.0&amp;Lid_play=0.1&amp;top_edge=i&amp;bottom_edge=h&amp;x=100&amp;y=170&amp;h=80&amp;outside=0&amp;vertical_edges=finger+joints&amp;thickness=3.0&amp;format=svg&amp;tabs=0.0&amp;qr_code=0&amp;debug=0&amp;labels=0&amp;labels=1&amp;reference=100&amp;inner_corners=loop&amp;burn=0.09&amp;language=en&amp;render=2
Url short: http://www.festi.info/boxes.py/UniversalBox?FingerJoint_finger=3.0&amp;FingerJoint_space=3.0&amp;top_edge=i&amp;y=170&amp;h=80&amp;outside=0&amp;burn=0.09
SettingsUrl: http://www.festi.info/boxes.py/UniversalBox?FingerJoint_angle=90.0&amp;FingerJoint_style=rectangular&amp;FingerJoint_surroundingspaces=2.0&amp;FingerJoint_bottom_lip=0.0&amp;FingerJoint_edge_width=1.0&amp;FingerJoint_extra_length=0.0&amp;FingerJoint_finger=3.0&amp;FingerJoint_play=0.0&amp;FingerJoint_space=3.0&amp;FingerJoint_width=1.0&amp;Stackable_angle=60&amp;Stackable_bottom_stabilizers=0.0&amp;Stackable_height=2.0&amp;Stackable_holedistance=1.0&amp;Stackable_width=4.0&amp;Hinge_grip_percentage=0&amp;Hinge_outset=0&amp;Hinge_outset=1&amp;Hinge_pinwidth=0.5&amp;Hinge_style=outset&amp;Hinge_axle=2.0&amp;Hinge_grip_length=0&amp;Hinge_hingestrength=1&amp;CabinetHinge_bore=3.2&amp;CabinetHinge_eyes_per_hinge=5&amp;CabinetHinge_hinges=2&amp;CabinetHinge_style=inside&amp;CabinetHinge_eye=1.5&amp;CabinetHinge_play=0.05&amp;CabinetHinge_spacing=2.0&amp;SlideOnLid_angle=90.0&amp;SlideOnLid_hole_width=0&amp;SlideOnLid_second_pin=0&amp;SlideOnLid_second_pin=1&amp;SlideOnLid_spring=both&amp;SlideOnLid_style=rectangular&amp;SlideOnLid_surroundingspaces=2.0&amp;SlideOnLid_bottom_lip=0.0&amp;SlideOnLid_edge_width=1.0&amp;SlideOnLid_extra_length=0.0&amp;SlideOnLid_finger=3.0&amp;SlideOnLid_play=0.05&amp;SlideOnLid_space=2.0&amp;SlideOnLid_width=1.0&amp;Click_angle=5.0&amp;Click_bottom_radius=0.1&amp;Click_depth=3.0&amp;RoundedTriangleEdge_height=50.0&amp;RoundedTriangleEdge_r_hole=2.0&amp;RoundedTriangleEdge_radius=30.0&amp;RoundedTriangleEdge_outset=1.0&amp;Mounting_d_head=6.5&amp;Mounting_d_shaft=3.0&amp;Mounting_margin=0.125&amp;Mounting_num=2&amp;Mounting_side=back&amp;Mounting_style=straight+edge%2C+within&amp;HandleEdge_height=20.0&amp;HandleEdge_hole_height=75.0&amp;HandleEdge_hole_width=40%3A40&amp;HandleEdge_on_sides=0&amp;HandleEdge_on_sides=1&amp;HandleEdge_radius=10.0&amp;HandleEdge_outset=1.0&amp;Flex_stretch=1.05&amp;Flex_connection=1.0&amp;Flex_distance=0.5&amp;Flex_width=5.0&amp;Lid_handle=none&amp;Lid_style=none&amp;Lid_handle_height=8.0&amp;Lid_height=4.0&amp;Lid_play=0.1&amp;top_edge=i&amp;bottom_edge=h&amp;x=100&amp;y=170&amp;h=80&amp;outside=0&amp;vertical_edges=finger+joints&amp;thickness=3.0&amp;format=svg&amp;tabs=0.0&amp;qr_code=0&amp;debug=0&amp;labels=0&amp;labels=1&amp;reference=100&amp;inner_corners=loop&amp;burn=0.09&amp;language=en&amp;render=2
SettingsUrl short: http://www.festi.info/boxes.py/UniversalBox?FingerJoint_finger=3.0&amp;FingerJoint_space=3.0&amp;top_edge=i&amp;y=170&amp;h=80&amp;outside=0&amp;burn=0.09
</dc:description>
      </cc:Work>
    </rdf:RDF>
  </metadata>
  <path
     id="rect22740"
     style="fill:none;fill-opacity:0;stroke:#000000;stroke-width:0.02;stroke-linecap:square;stroke-dasharray:none"
     d="m 173.35932,114.75069 a 5.3578125,5.3578125 0 0 0 -5.35782,5.35781 v 1.15549 H 83.082148 v -3.00034 h -9.18032 v 3.00034 h -8.82013 v -2.99982 h -9.1798 v 2.99982 h -8.82014 v -2.99982 h -9.1798 v 2.99982 h -8.82013 v -3.00034 h -9.1798 v 3.00034 H 8.4127978 v 11.50007 h -3.00033 v 9.18032 h 3.00033 v 8.81961 h -3.00033 v 9.18032 h 3.00033 v 8.82014 h -3.00033 v 9.1798 h 3.00033 v 8.82013 h -3.00033 v 9.1798 h 3.00033 v 11.50008 H 178.59259 v -11.50008 h 2.99982 v -9.1798 h -2.99982 v -8.82013 h 3.00033 v -9.1798 h -3.00033 v -8.82014 h 3.00033 v -9.18032 h -3.00033 v -8.81961 h 2.99982 v -9.18032 h -2.99982 v -11.50007 -1.2175 a 5.2644585,5.2644585 0 0 0 -5.23327,-5.2958 z m -0.062,2.86339 a 2.1499991,2.1499994 0 0 1 2.14974,2.14974 2.1499991,2.1499994 0 0 1 -2.14974,2.15026 2.1499991,2.1499994 0 0 1 -2.15025,-2.15026 2.1499991,2.1499994 0 0 1 2.15025,-2.14974 z m -93.204632,83.83003 h 8.82013 v 2.82101 h -8.82013 z m 17.99993,0 h 8.820132 v 2.82101 h -8.820132 z m 18.000442,0 h 8.82014 v 2.82101 h -8.82016 z m 17.99994,0 h 8.82013 v 2.82101 H 134.093 Z m 18.00045,0 h 8.82013 v 2.82101 h -8.82013 z m -126.001082,5.1e-4 h 8.82013 v 2.8205 h -8.82013 z m 17.99993,0 h 8.82013 v 2.8205 h -8.82013 z m 18.00045,0 h 8.82014 v 2.8205 h -8.82014 z" />
  <path
     id="rect23322"
     style="fill:#000000;fill-opacity:0;stroke:#000000;stroke-width:0.02;stroke-linecap:square;stroke-dasharray:none"
     d="m 99.58668,386.29677 v -2.99982 h 9.50008 v -17.50023 h 3.02 v -9.1798 h -3.02 v -8.82013 h 3.02 v -9.1798 h -3.02 v -8.82014 h 3.02 v -9.1798 h -3.02 v -8.82013 h 3.02 v -9.17979 h -3.02 v -8.82014 h 3.02 v -9.1798 h -3.02 v -8.82013 h 3.02 v -9.1798 h -3.02 v -8.82013 h 3.02 v -9.17981 h -3.02 v -8.82013 h 3.02 v -9.18032 h -3.02 v -17.49971 h -9.50008 v -3.00033 h -9.17991 v 3.00033 h -8.82011 v -3.00033 h -9.1798 v 3.00033 h -8.8201 v -3.00033 h -9.17979 v 3.00033 h -8.82016 v -3.00033 h -9.18032 v 3.00033 h -8.81961 v -3.00033 h -9.18032 v 3.00033 H 8.9068802 v 17.49971 h -3.01997 v 9.18032 h 3.01997 v 8.82013 h -3.01997 v 9.17981 h 3.01997 v 8.82013 h -3.01997 v 9.1798 h 3.01997 v 8.82013 h -3.01997 v 9.1798 h 3.01997 v 8.82014 h -3.01997 v 9.17979 h 3.01997 v 8.82013 h -3.01997 v 9.1798 h 3.01997 v 8.82014 h -3.01997 v 9.1798 h 3.01997 v 8.82013 h -3.01997 v 9.1798 h 3.01997 v 17.50023 H 18.40656 v 2.99982 h 9.18032 v -2.99982 h 8.81961 v 2.99982 h 9.18032 v -2.99982 h 8.82016 v 2.99982 h 9.17979 v -2.99982 h 8.8201 v 2.99982 h 9.1798 v -2.99982 h 8.82011 v 2.99982 z" />
  <path
     id="rect26934"
     style="fill:#000000;fill-opacity:0;stroke:#000000;stroke-width:0.02;stroke-linecap:square;stroke-dasharray:none"
     d="m 187.86688,113.21163 v 14.68296 h 2.99982 v 8.82157 h -2.99982 v 9.18236 h 2.99982 v 8.82157 h -2.99982 v 9.18234 h 2.99982 v 8.82208 h -2.99982 v 9.18183 h 2.99982 v 8.82208 h -2.99982 v 11.6825 h 2.99982 100.17735 2.99982 v -11.6825 h -2.99982 v -8.82208 h 2.99982 v -9.18235 h -2.99982 v -8.82156 h 2.99982 v -9.18235 h -2.99982 v -8.82157 h 2.99982 v -9.18235 h -2.99982 v -8.82208 h 2.99982 V 113.21163 H 291.04405 190.8667 Z m 30.67668,83.19728 h 8.82014 v 2.82112 h -8.82014 z m 18.00201,0 h 8.82013 v 2.82112 h -8.82013 z m 17.99838,0 h 8.82013 v 2.82112 h -8.82013 z m 18.00045,0 h 8.81962 v 2.82112 h -8.81962 z m -72.00077,5.2e-4 h 8.82013 v 2.82112 h -8.82013 z" />
  <path
     id="rect30272"
     style="fill:#000000;fill-opacity:0;stroke:#000000;stroke-width:0.02;stroke-linecap:square;stroke-dasharray:none"
     d="m 90.035694,88.019275 h 2.99982 v 18.500145 3.00033 h 11.677846 v -3.00033 h 8.82013 v 2.99982 h 9.1798 v -2.99982 h 8.82014 v 2.99982 h 9.1798 v -2.99982 h 8.82013 v 3.00033 h 9.1798 v -3.00033 h 8.82013 v 2.99982 H 179.2132 V 106.51942 6.3395095 3.3396895 h -11.67991 v 2.99982 h -8.82013 v -2.99982 h -9.1798 v 2.99982 h -8.82013 v -2.99982 h -9.1798 v 2.99982 h -8.82014 v -2.99982 h -9.1798 v 2.99982 h -8.82013 v -2.99982 H 93.035514 v 2.99982 18.5001605 h -2.99982 v 9.179795 h 2.99982 v 8.82014 h -2.99982 v 9.1798 h 2.99982 v 8.82013 h -2.99982 v 9.1798 h 2.99982 v 8.82014 h -2.99982 z m 83.177876,-9.17929 v -8.82013 h 2.8205 v 8.82013 z m 0,-18.00045 v -8.82013 h 2.8205 v 8.82013 z m 0,-17.99993 v -8.82014 h 2.8205 v 8.82014 z m 0,-18.000445 v -8.82014 h 2.8205 v 8.82014 z m 5.2e-4,72.000235 v -8.81961 h 2.82049 v 8.81961 z" />
  <path
     id="path57294"
     style="fill:none;fill-opacity:0;stroke:#000000;stroke-width:0.02;stroke-linecap:square;stroke-dasharray:none"
     d="m 111.96856,376.65852 a 5.3578125,5.3578125 0 0 1 5.35781,-5.35782 h 1.15549 v -84.91936 h -3.00034 v -9.18032 h 3.00034 v -8.82013 h -2.99982 v -9.1798 h 2.99982 v -8.82014 h -2.99982 v -9.1798 h 2.99982 v -8.82013 h -3.00034 v -9.1798 h 3.00034 v -11.48923 h 11.50008 v -3.00033 h 9.18032 v 3.00033 h 8.81961 v -3.00033 h 9.18032 v 3.00033 h 8.82014 v -3.00033 h 9.1798 v 3.00033 h 8.82013 v -3.00033 h 9.1798 v 3.00033 h 11.50008 v 170.1798 h -11.50008 v 2.99982 h -9.1798 v -2.99982 h -8.82013 v 3.00033 h -9.1798 v -3.00033 h -8.82014 v 3.00033 h -9.18032 v -3.00033 h -8.81961 v 2.99982 h -9.18032 v -2.99982 h -11.50008 -1.2175 a 5.2644585,5.2644585 0 0 1 -5.2958,-5.23327 z m 2.86339,-0.062 a 2.1499994,2.1499991 0 0 0 2.14974,2.14974 2.1499994,2.1499991 0 0 0 2.15026,-2.14974 2.1499994,2.1499991 0 0 0 -2.15026,-2.15025 2.1499994,2.1499991 0 0 0 -2.14974,2.15025 z m 83.83004,-93.20464 v 8.82013 h 2.82101 v -8.82013 z m 0,17.99993 v 8.82014 h 2.82101 v -8.82014 z m 0,18.00045 v 8.82014 h 2.82101 v -8.82014 z m 0,17.99994 v 8.82013 h 2.82101 v -8.82013 z m 0,18.00045 v 8.82013 h 2.82101 v -8.82013 z m 5.1e-4,-126.00109 v 8.82013 h 2.8205 v -8.82013 z m 0,17.99993 v 8.82013 h 2.8205 v -8.82013 z m 0,18.00045 v 8.82014 h 2.8205 v -8.82014 z" />
  <path
     id="rect26920"
     style="fill:#000000;fill-opacity:0;stroke:#000000;stroke-width:0.02;stroke-linecap:square;stroke-dasharray:none"
     d="M 183.0088,2.6561917 V 108.8368 h 74.2027 v -3.29799 h 4.93769 v 3.29902 h 2.99981 v -3.29902 h 3.04064 V 5.9536717 H 265.149 v -3.29593 h -2.99981 v 3.29593 h -4.93769 v -3.29748 z" />
  <path
     id="rect30332-1"
     style="fill:#000000;fill-opacity:0;stroke:#000000;stroke-width:0.02;stroke-linecap:square;stroke-dasharray:none"
     d="m 2.1992816,108.09969 h 2.99981 2.999822 8.6692394 v -2.99981 h 8.81962 v 2.99981 h 9.18031 v -2.99981 h 8.81962 v 2.99981 h 9.18032 v -2.99981 h 8.82013 v 2.99981 h 9.1798 v -2.99981 h 8.82014 v 2.99981 h 8.66924 V 1.9418329 h -8.66924 v 2.99982 h -8.82014 v -2.99982 h -9.1798 v 2.99982 h -8.82013 v -2.99982 h -9.18032 v 2.99982 h -8.81962 v -2.99982 h -9.18031 v 2.99982 h -8.81962 v -2.99982 H 8.1989136 5.1990916 2.1992816 V 23.610789 h 2.99981 v 8.82014 h -2.99981 v 9.1798 h 2.99981 v 8.82013 h -2.99981 v 9.1798 h 2.99981 v 8.82014 h -2.99981 v 9.1798 h 2.99981 v 8.82013 h -2.99981 z M 42.376153,57.517769 v -4.99401 h 12.29434 v 4.99401 z m 22.45548,0.84904 v -6.6921 h 12.89172 v 6.6921 z" />
  <path
     id="path315"
     style="fill:none;stroke:#000000;stroke-width:0.020406;stroke-dasharray:none"
     d="m 209.11304,206.9506 v 80.15945 h 17.99942 V 206.9506 Z"
     sodipodi:nodetypes="ccccc" />
  <path
     d="m 278.64657,279.82898 -42.19504,-35.68494 v -34.47937 h -8.07732 l 0.36167,39.54277 44.77193,36.58911 18.03417,-0.0151 -0.0452,-5.91063 z"
     style="fill:none;fill-opacity:1;stroke:#000000;stroke-width:0.02;stroke-dasharray:none;stroke-opacity:1;paint-order:markers fill stroke"
     id="path2544-2"
     sodipodi:nodetypes="ccccccccc" />
  <rect
     style="fill:none;stroke:#000000;stroke-width:0.02;stroke-dasharray:none;paint-order:markers fill stroke"
     id="rect14156"
     width="12.320108"
     height="23.686014"
     x="211.95215"
     y="218.30118" />
  <path
     style="fill:none;stroke:#000000;stroke-width:0.02;stroke-dasharray:none"
     d="m 253.76193,247.89002 v 0"
     id="path1793" />
  <path
     style="fill:none;stroke:#000000;stroke-width:0.02;stroke-dasharray:none"
     d="m 253.76193,247.89002 h -0.98764"
     id="path1795" />
  <path
     style="fill:none;stroke:#000000;stroke-width:0.02;stroke-dasharray:none"
     d="m 252.77429,255.88996 h 1"
     id="path1799" />
  <path
     style="fill:none;stroke:#000000;stroke-width:0.02;stroke-dasharray:none"
     d="m 253.77429,255.88996 11.99599,0.0749"
     id="path1801" />
  <path
     style="fill:none;stroke:#000000;stroke-width:0.02;stroke-dasharray:none"
     d="m 237.27852,212.09004 2.64208,6.96992"
     id="path1805" />
  <path
     d="m 274.81521,281.35782 h 14.8904 v 2.99562 h -14.8904 z"
     style="fill:none;stroke:#000000;stroke-width:0.02;stroke-dasharray:none"
     id="path4320-7" />
  <path
     d="m 254.14831,250.60341 h 10 v 3 h -10 z"
     style="fill:none;stroke:#000000;stroke-width:0.02;stroke-dasharray:none"
     id="path4320-2" />
  <path
     style="fill:none;stroke:#000000;stroke-width:0.02;stroke-dasharray:none"
     d="m 259.98646,247.92891 -6.22453,-0.0389"
     id="path1791" />
  <path
     style="fill:none;stroke:#000000;stroke-width:0.02;stroke-dasharray:none"
     d="m 252.77429,247.89002 v 7.99994"
     id="path1797" />
  <path
     d="m 265.77027,255.96496 c 1.42529,-4.34516 2.40718,-8.42348 2.93572,-12.22245 0.46003,-3.30648 0.57419,-6.40109 0.34902,-9.25719 -0.38724,-4.91169 -1.79308,-9.10929 -3.90704,-12.40175 -1.57249,-2.44911 -3.52634,-4.39325 -5.7734,-5.9024 -1.67149,-1.12259 -3.51122,-2.01182 -5.45118,-2.70638 -2.85126,-1.02084 -5.90038,-1.62153 -8.82473,-1.8283 -2.729,-0.19296 -5.34939,-0.0412 -7.82015,0.44368"
     style="fill:none;stroke:#000000;stroke-width:0.02;stroke-dasharray:none"
     id="path1803" />
  <path
     d="m 259.98646,247.92884 c 1.02848,-4.05958 1.56122,-7.77501 1.59882,-11.06581 0.0327,-2.86419 -0.31244,-5.40218 -0.96518,-7.56271 -1.12254,-3.71551 -3.13595,-6.30695 -5.35606,-7.7997 -0.83581,-0.56198 -1.69966,-0.97079 -2.57497,-1.27323 -1.50529,-0.52011 -3.04315,-0.76027 -4.7337,-0.96507 -1.25752,-0.15233 -2.60705,-0.27237 -4.00161,-0.31982 -1.33929,-0.0456 -2.71158,-0.0188 -4.03316,0.11753"
     style="fill:none;stroke:#000000;stroke-width:0.02;stroke-dasharray:none"
     id="path1807" />
</svg>
